{"serviceUUID":"97268534-5d76-4af0-917c-42241d4ec376","timestamp":"11:04:47 AM","rssi":-40,"distance":0.1468}
{"serviceUUID":"97268534-5d76-4af0-917c-42241d4ec376","timestamp":"11:04:47 AM","rssi":-40,"distance":0.1468}




